{
    "name": "City",
    "alias": "city",
    "description": "",
    "keywords": [],
    "active": 1,
    "order": 3,
    "group": 1,
    "providers": [
        "Modules\\City\\Providers\\CityServiceProvider"
    ],
    "aliases": {},
    "files": [
        "start.php"
    ],
    "requires": []
}